RENTREE;Rentrée universitaire;Type d'établissement;ETABLISSEMENT_TYPE;Typologie d'établissement;ETABLISSEMENT;Établissement;Sigle;Élément wikidata;Identifiant ETER;Champ statistique (universités et établissements assimilés France métro+DOM);DN_DE;Type de diplôme;CURSUS_LMD;Cycle universitaire (cursus LMD);Regroupement de diplômes;DIPLOME;Diplôme;TYP_DIPLOME;Type de diplôme ou de formation;DIPLOM;Libellé du diplôme ou de la formation 1;Libellé du diplôme ou de la formation 2;NIVEAU;Niveau dans le diplôme;Sélection disciplinaire;GD_DISCISCIPLINE;Grande discipline;DISCIPLINE;Discipline;SECT_DISCIPLINAIRE;Secteur disciplinaire;Regroupement des spécialités de DUT;SPEC_DUT;Spécialité de DUT;Nombre d'étudiants inscrits (inscriptions principales);Dont femmes;Dont hommes;Nombre d'étudiants inscrits (inscriptions principales) hors étudiants inscrits en parallèle en CPGE;Nombre total d'étudiants inscrits (inscriptions principales et secondes);Localisation du siège de l’établissement;Localisation de l'unité d'inscription;COM_ETAB;Commune du siège de l’établissement;UUCR_ETAB;Unité urbaine ou commune rurale du siège de l’établissement;DEP_ETAB;Département du siège de l’établissement;ACA_ETAB;Académie du siège de l’établissement;REG_ETAB;Région du siège de l’établissement;COM_INS;Commune de l'unité d'inscription;UUCR_INS;Unité urbaine ou commune rurale de l'unité d'inscription;DEP_INS;Département de l'unité d'inscription;ACA_INS;Académie de l'unité d'inscription;REG_INS;Région de l'unité d'inscription
2017;2017-18;Université;TYPO21;Universités pluridisciplinaires avec santé;0941111X;Université Paris-Est Créteil Val-de-Marne;UPEC;https://www.wikidata.org/entity/Q980688;FR0266;oui;DN;Diplômes nationaux;L;1er cycle;Diplôme universitaire de technologie;DUT;Diplôme universitaire de technologie;CB;Diplôme universitaire de technologie;1000282;GENIE ELECTRIQUE ET INFORMATIQUE INDUSTRIELLE;;2;2ème année;Sciences et sciences de l'ingénieur>Sciences fondamentales et applications>Électronique, génie électrique;SI;Sciences et sciences de l'ingénieur;15;Sciences fondamentales et applications;15;Électronique, génie électrique;Secteur de la production;IUT_GE2I;Génie électrique et informatique industrielle;41;3;38;41;41;Île-de-France>Créteil>Val-de-Marne>Paris>Créteil;Île-de-France>Créteil>Val-de-Marne>Paris>Créteil;94028;Créteil;UU00851;Paris;D094;Val-de-Marne;A24;Créteil;R11;Île-de-France;94028;Créteil;UU00851;Paris;D094;Val-de-Marne;A24;Créteil;R11;Île-de-France
2017;2017-18;Université;TYPO21;Universités pluridisciplinaires avec santé;0941111X;Université Paris-Est Créteil Val-de-Marne;UPEC;https://www.wikidata.org/entity/Q980688;FR0266;oui;DN;Diplômes nationaux;L;1er cycle;Diplôme universitaire de technologie;DUT;Diplôme universitaire de technologie;CB;Diplôme universitaire de technologie;1003219;GESTION DES ENTREPRISES ET DES ADMINISTRATIONS;GESTION COMPTABLE ET FINANCIERE;2;2ème année;Droit, sciences économiques, AES>Sciences économiques, gestion>Sciences de gestion;DSA;Droit, sciences économiques, AES;02;Sciences économiques, gestion;39;Sciences de gestion;Secteur des services;IUT_GEA;Gestion des entreprises et administrations;31;19;12;31;31;Île-de-France>Créteil>Val-de-Marne>Paris>Créteil;Île-de-France>Créteil>Seine-et-Marne>Paris>Lieusaint;94028;Créteil;UU00851;Paris;D094;Val-de-Marne;A24;Créteil;R11;Île-de-France;77251;Lieusaint;UU00851;Paris;D077;Seine-et-Marne;A24;Créteil;R11;Île-de-France
2017;2017-18;Université;TYPO21;Universités pluridisciplinaires avec santé;0941111X;Université Paris-Est Créteil Val-de-Marne;UPEC;https://www.wikidata.org/entity/Q980688;FR0266;oui;DN;Diplômes nationaux;L;1er cycle;Diplôme universitaire de technologie;DUT;Diplôme universitaire de technologie;CB;Diplôme universitaire de technologie;1000318;TECHNIQUES DE COMMERCIALISATION;;2;2ème année;Droit, sciences économiques, AES>Sciences économiques, gestion>Sciences de gestion;DSA;Droit, sciences économiques, AES;02;Sciences économiques, gestion;39;Sciences de gestion;Secteur des services;IUT_TC;Techniques de commercialisation;156;87;69;156;156;Île-de-France>Créteil>Val-de-Marne>Paris>Créteil;Île-de-France>Créteil>Seine-et-Marne>Paris>Lieusaint;94028;Créteil;UU00851;Paris;D094;Val-de-Marne;A24;Créteil;R11;Île-de-France;77251;Lieusaint;UU00851;Paris;D077;Seine-et-Marne;A24;Créteil;R11;Île-de-France
2017;2017-18;Université;TYPO21;Universités pluridisciplinaires avec santé;0941111X;Université Paris-Est Créteil Val-de-Marne;UPEC;https://www.wikidata.org/entity/Q980688;FR0266;oui;DN;Diplômes nationaux;L;1er cycle;Diplôme universitaire de technologie;DUT;Diplôme universitaire de technologie;CB;Diplôme universitaire de technologie;1000318;TECHNIQUES DE COMMERCIALISATION;;1;1ère année;Droit, sciences économiques, AES>Sciences économiques, gestion>Sciences de gestion;DSA;Droit, sciences économiques, AES;02;Sciences économiques, gestion;39;Sciences de gestion;Secteur des services;IUT_TC;Techniques de commercialisation;177;106;71;177;177;Île-de-France>Créteil>Val-de-Marne>Paris>Créteil;Île-de-France>Créteil>Seine-et-Marne>Paris>Lieusaint;94028;Créteil;UU00851;Paris;D094;Val-de-Marne;A24;Créteil;R11;Île-de-France;77251;Lieusaint;UU00851;Paris;D077;Seine-et-Marne;A24;Créteil;R11;Île-de-France
2017;2017-18;Université;TYPO21;Universités pluridisciplinaires avec santé;0941111X;Université Paris-Est Créteil Val-de-Marne;UPEC;https://www.wikidata.org/entity/Q980688;FR0266;oui;DN;Diplômes nationaux;L;1er cycle;Diplôme universitaire de technologie;DUT;Diplôme universitaire de technologie;CB;Diplôme universitaire de technologie;1000264;GENIE BIOLOGIQUE;;1;1ère année;Sciences et sciences de l'ingénieur>Sciences de la vie, de la terre et de l'univers>Sciences de la vie;SI;Sciences et sciences de l'ingénieur;09;Sciences de la vie, de la terre et de l'univers;06;Sciences de la vie;Secteur de la production;IUT_GB;Génie biologique;117;87;30;117;118;Île-de-France>Créteil>Val-de-Marne>Paris>Créteil;Île-de-France>Créteil>Val-de-Marne>Paris>Créteil;94028;Créteil;UU00851;Paris;D094;Val-de-Marne;A24;Créteil;R11;Île-de-France;94028;Créteil;UU00851;Paris;D094;Val-de-Marne;A24;Créteil;R11;Île-de-France
2017;2017-18;Université;TYPO21;Universités pluridisciplinaires avec santé;0941111X;Université Paris-Est Créteil Val-de-Marne;UPEC;https://www.wikidata.org/entity/Q980688;FR0266;oui;DN;Diplômes nationaux;L;1er cycle;Diplôme universitaire de technologie;DUT;Diplôme universitaire de technologie;CB;Diplôme universitaire de technologie;1000266;GENIE BIOLOGIQUE;ANALYSES BIOLOGIQUES ET BIOCHIMIQUES;2;2ème année;Sciences et sciences de l'ingénieur>Sciences de la vie, de la terre et de l'univers>Sciences de la vie;SI;Sciences et sciences de l'ingénieur;09;Sciences de la vie, de la terre et de l'univers;06;Sciences de la vie;Secteur de la production;IUT_GB;Génie biologique;52;34;18;52;52;Île-de-France>Créteil>Val-de-Marne>Paris>Créteil;Île-de-France>Créteil>Val-de-Marne>Paris>Créteil;94028;Créteil;UU00851;Paris;D094;Val-de-Marne;A24;Créteil;R11;Île-de-France;94028;Créteil;UU00851;Paris;D094;Val-de-Marne;A24;Créteil;R11;Île-de-France
2017;2017-18;Université;TYPO21;Universités pluridisciplinaires avec santé;0941111X;Université Paris-Est Créteil Val-de-Marne;UPEC;https://www.wikidata.org/entity/Q980688;FR0266;oui;DN;Diplômes nationaux;L;1er cycle;Diplôme universitaire de technologie;DUT;Diplôme universitaire de technologie;CB;Diplôme universitaire de technologie;1003220;GESTION DES ENTREPRISES ET DES ADMINISTRATIONS;GESTION ET MANAGEMENT DES ORGANISATIONS;2;2ème année;Droit, sciences économiques, AES>Sciences économiques, gestion>Sciences de gestion;DSA;Droit, sciences économiques, AES;02;Sciences économiques, gestion;39;Sciences de gestion;Secteur des services;IUT_GEA;Gestion des entreprises et administrations;59;29;30;59;59;Île-de-France>Créteil>Val-de-Marne>Paris>Créteil;Île-de-France>Créteil>Seine-et-Marne>Paris>Lieusaint;94028;Créteil;UU00851;Paris;D094;Val-de-Marne;A24;Créteil;R11;Île-de-France;77251;Lieusaint;UU00851;Paris;D077;Seine-et-Marne;A24;Créteil;R11;Île-de-France
2017;2017-18;Université;TYPO21;Universités pluridisciplinaires avec santé;0941111X;Université Paris-Est Créteil Val-de-Marne;UPEC;https://www.wikidata.org/entity/Q980688;FR0266;oui;DN;Diplômes nationaux;L;1er cycle;Diplôme universitaire de technologie;DUT;Diplôme universitaire de technologie;CB;Diplôme universitaire de technologie;1000312;GESTION DES ENTREPRISES ET DES ADMINISTRATIONS;;1;1ère année;Droit, sciences économiques, AES>Sciences économiques, gestion>Sciences de gestion;DSA;Droit, sciences économiques, AES;02;Sciences économiques, gestion;39;Sciences de gestion;Secteur des services;IUT_GEA;Gestion des entreprises et administrations;131;85;46;131;131;Île-de-France>Créteil>Val-de-Marne>Paris>Créteil;Île-de-France>Créteil>Seine-et-Marne>Fontainebleau;94028;Créteil;UU00851;Paris;D094;Val-de-Marne;A24;Créteil;R11;Île-de-France;77186;Fontainebleau;UU77406;Fontainebleau;D077;Seine-et-Marne;A24;Créteil;R11;Île-de-France
2017;2017-18;Université;TYPO21;Universités pluridisciplinaires avec santé;0941111X;Université Paris-Est Créteil Val-de-Marne;UPEC;https://www.wikidata.org/entity/Q980688;FR0266;oui;DN;Diplômes nationaux;L;1er cycle;Diplôme universitaire de technologie;DUT;Diplôme universitaire de technologie;CB;Diplôme universitaire de technologie;1003221;GESTION DES ENTREPRISES ET DES ADMINISTRATIONS;GESTION DES RESSOURCES HUMAINES;2;2ème année;Droit, sciences économiques, AES>Sciences économiques, gestion>Sciences de gestion;DSA;Droit, sciences économiques, AES;02;Sciences économiques, gestion;39;Sciences de gestion;Secteur des services;IUT_GEA;Gestion des entreprises et administrations;40;37;3;40;40;Île-de-France>Créteil>Val-de-Marne>Paris>Créteil;Île-de-France>Créteil>Seine-et-Marne>Paris>Lieusaint;94028;Créteil;UU00851;Paris;D094;Val-de-Marne;A24;Créteil;R11;Île-de-France;77251;Lieusaint;UU00851;Paris;D077;Seine-et-Marne;A24;Créteil;R11;Île-de-France
2017;2017-18;Université;TYPO21;Universités pluridisciplinaires avec santé;0941111X;Université Paris-Est Créteil Val-de-Marne;UPEC;https://www.wikidata.org/entity/Q980688;FR0266;oui;DN;Diplômes nationaux;L;1er cycle;Diplôme universitaire de technologie;DUT;Diplôme universitaire de technologie;CB;Diplôme universitaire de technologie;1003219;GESTION DES ENTREPRISES ET DES ADMINISTRATIONS;GESTION COMPTABLE ET FINANCIERE;2;2ème année;Droit, sciences économiques, AES>Sciences économiques, gestion>Sciences de gestion;DSA;Droit, sciences économiques, AES;02;Sciences économiques, gestion;39;Sciences de gestion;Secteur des services;IUT_GEA;Gestion des entreprises et administrations;36;16;20;36;36;Île-de-France>Créteil>Val-de-Marne>Paris>Créteil;Île-de-France>Créteil>Seine-et-Marne>Fontainebleau;94028;Créteil;UU00851;Paris;D094;Val-de-Marne;A24;Créteil;R11;Île-de-France;77186;Fontainebleau;UU77406;Fontainebleau;D077;Seine-et-Marne;A24;Créteil;R11;Île-de-France
2017;2017-18;Université;TYPO21;Universités pluridisciplinaires avec santé;0941111X;Université Paris-Est Créteil Val-de-Marne;UPEC;https://www.wikidata.org/entity/Q980688;FR0266;oui;DN;Diplômes nationaux;L;1er cycle;Diplôme universitaire de technologie;DUT;Diplôme universitaire de technologie;CB;Diplôme universitaire de technologie;1003217;CHIMIE;CHIMIE ANALYTIQUE ET DE SYNTHESE;2;2ème année;Sciences et sciences de l'ingénieur>Sciences fondamentales et applications>Chimie;SI;Sciences et sciences de l'ingénieur;15;Sciences fondamentales et applications;03;Chimie;Secteur de la production;IUT_CHIMIE;Chimie;68;47;21;68;68;Île-de-France>Créteil>Val-de-Marne>Paris>Créteil;Île-de-France>Créteil>Val-de-Marne>Paris>Vitry-sur-Seine;94028;Créteil;UU00851;Paris;D094;Val-de-Marne;A24;Créteil;R11;Île-de-France;94081;Vitry-sur-Seine;UU00851;Paris;D094;Val-de-Marne;A24;Créteil;R11;Île-de-France
2017;2017-18;Université;TYPO21;Universités pluridisciplinaires avec santé;0941111X;Université Paris-Est Créteil Val-de-Marne;UPEC;https://www.wikidata.org/entity/Q980688;FR0266;oui;DN;Diplômes nationaux;L;1er cycle;Diplôme universitaire de technologie;DUT;Diplôme universitaire de technologie;CB;Diplôme universitaire de technologie;1000318;TECHNIQUES DE COMMERCIALISATION;;1;1ère année;Droit, sciences économiques, AES>Sciences économiques, gestion>Sciences de gestion;DSA;Droit, sciences économiques, AES;02;Sciences économiques, gestion;39;Sciences de gestion;Secteur des services;IUT_TC;Techniques de commercialisation;122;64;58;122;122;Île-de-France>Créteil>Val-de-Marne>Paris>Créteil;Île-de-France>Créteil>Val-de-Marne>Paris>Créteil;94028;Créteil;UU00851;Paris;D094;Val-de-Marne;A24;Créteil;R11;Île-de-France;94028;Créteil;UU00851;Paris;D094;Val-de-Marne;A24;Créteil;R11;Île-de-France
2017;2017-18;Université;TYPO21;Universités pluridisciplinaires avec santé;0941111X;Université Paris-Est Créteil Val-de-Marne;UPEC;https://www.wikidata.org/entity/Q980688;FR0266;oui;DN;Diplômes nationaux;L;1er cycle;Diplôme universitaire de technologie;DUT;Diplôme universitaire de technologie;CB;Diplôme universitaire de technologie;1000293;INFORMATIQUE;;2;2ème année;Sciences et sciences de l'ingénieur>Sciences fondamentales et applications>Informatique;SI;Sciences et sciences de l'ingénieur;15;Sciences fondamentales et applications;14;Informatique;Secteur des services;IUT_INFO;Informatique;77;10;67;77;77;Île-de-France>Créteil>Val-de-Marne>Paris>Créteil;Île-de-France>Créteil>Seine-et-Marne>Fontainebleau;94028;Créteil;UU00851;Paris;D094;Val-de-Marne;A24;Créteil;R11;Île-de-France;77186;Fontainebleau;UU77406;Fontainebleau;D077;Seine-et-Marne;A24;Créteil;R11;Île-de-France
2017;2017-18;Université;TYPO21;Universités pluridisciplinaires avec santé;0941111X;Université Paris-Est Créteil Val-de-Marne;UPEC;https://www.wikidata.org/entity/Q980688;FR0266;oui;DN;Diplômes nationaux;L;1er cycle;Diplôme universitaire de technologie;DUT;Diplôme universitaire de technologie;CB;Diplôme universitaire de technologie;1000318;TECHNIQUES DE COMMERCIALISATION;;2;2ème année;Droit, sciences économiques, AES>Sciences économiques, gestion>Sciences de gestion;DSA;Droit, sciences économiques, AES;02;Sciences économiques, gestion;39;Sciences de gestion;Secteur des services;IUT_TC;Techniques de commercialisation;93;61;32;93;93;Île-de-France>Créteil>Val-de-Marne>Paris>Créteil;Île-de-France>Créteil>Val-de-Marne>Paris>Créteil;94028;Créteil;UU00851;Paris;D094;Val-de-Marne;A24;Créteil;R11;Île-de-France;94028;Créteil;UU00851;Paris;D094;Val-de-Marne;A24;Créteil;R11;Île-de-France
2017;2017-18;Université;TYPO21;Universités pluridisciplinaires avec santé;0941111X;Université Paris-Est Créteil Val-de-Marne;UPEC;https://www.wikidata.org/entity/Q980688;FR0266;oui;DN;Diplômes nationaux;L;1er cycle;Diplôme universitaire de technologie;DUT;Diplôme universitaire de technologie;CB;Diplôme universitaire de technologie;1000293;INFORMATIQUE;;1;1ère année;Sciences et sciences de l'ingénieur>Sciences fondamentales et applications>Informatique;SI;Sciences et sciences de l'ingénieur;15;Sciences fondamentales et applications;14;Informatique;Secteur des services;IUT_INFO;Informatique;108;9;99;108;109;Île-de-France>Créteil>Val-de-Marne>Paris>Créteil;Île-de-France>Créteil>Seine-et-Marne>Fontainebleau;94028;Créteil;UU00851;Paris;D094;Val-de-Marne;A24;Créteil;R11;Île-de-France;77186;Fontainebleau;UU77406;Fontainebleau;D077;Seine-et-Marne;A24;Créteil;R11;Île-de-France
2017;2017-18;Université;TYPO21;Universités pluridisciplinaires avec santé;0941111X;Université Paris-Est Créteil Val-de-Marne;UPEC;https://www.wikidata.org/entity/Q980688;FR0266;oui;DN;Diplômes nationaux;L;1er cycle;Diplôme universitaire de technologie;DUT;Diplôme universitaire de technologie;CB;Diplôme universitaire de technologie;1000282;GENIE ELECTRIQUE ET INFORMATIQUE INDUSTRIELLE;;1;1ère année;Sciences et sciences de l'ingénieur>Sciences fondamentales et applications>Électronique, génie électrique;SI;Sciences et sciences de l'ingénieur;15;Sciences fondamentales et applications;15;Électronique, génie électrique;Secteur de la production;IUT_GE2I;Génie électrique et informatique industrielle;83;6;77;83;83;Île-de-France>Créteil>Val-de-Marne>Paris>Créteil;Île-de-France>Créteil>Val-de-Marne>Paris>Créteil;94028;Créteil;UU00851;Paris;D094;Val-de-Marne;A24;Créteil;R11;Île-de-France;94028;Créteil;UU00851;Paris;D094;Val-de-Marne;A24;Créteil;R11;Île-de-France
2017;2017-18;Université;TYPO21;Universités pluridisciplinaires avec santé;0941111X;Université Paris-Est Créteil Val-de-Marne;UPEC;https://www.wikidata.org/entity/Q980688;FR0266;oui;DN;Diplômes nationaux;L;1er cycle;Diplôme universitaire de technologie;DUT;Diplôme universitaire de technologie;CB;Diplôme universitaire de technologie;1000297;MESURES PHYSIQUES;;2;2ème année;Sciences et sciences de l'ingénieur>Sciences fondamentales et applications>Physique;SI;Sciences et sciences de l'ingénieur;15;Sciences fondamentales et applications;02;Physique;Secteur de la production;IUT_MP;Mesures physiques;66;22;44;66;66;Île-de-France>Créteil>Val-de-Marne>Paris>Créteil;Île-de-France>Créteil>Val-de-Marne>Paris>Créteil;94028;Créteil;UU00851;Paris;D094;Val-de-Marne;A24;Créteil;R11;Île-de-France;94028;Créteil;UU00851;Paris;D094;Val-de-Marne;A24;Créteil;R11;Île-de-France
2017;2017-18;Université;TYPO21;Universités pluridisciplinaires avec santé;0941111X;Université Paris-Est Créteil Val-de-Marne;UPEC;https://www.wikidata.org/entity/Q980688;FR0266;oui;DN;Diplômes nationaux;L;1er cycle;Diplôme universitaire de technologie;DUT;Diplôme universitaire de technologie;CB;Diplôme universitaire de technologie;1000296;GENIE INDUSTRIEL ET MAINTENANCE;;2;2ème année;Sciences et sciences de l'ingénieur>Sciences fondamentales et applications>Technologie et sciences industrielles;SI;Sciences et sciences de l'ingénieur;15;Sciences fondamentales et applications;16;Technologie et sciences industrielles;Secteur de la production;IUT_GIM;Génie industriel et maintenance;51;4;47;51;51;Île-de-France>Créteil>Val-de-Marne>Paris>Créteil;Île-de-France>Créteil>Seine-et-Marne>Paris>Lieusaint;94028;Créteil;UU00851;Paris;D094;Val-de-Marne;A24;Créteil;R11;Île-de-France;77251;Lieusaint;UU00851;Paris;D077;Seine-et-Marne;A24;Créteil;R11;Île-de-France
2017;2017-18;Université;TYPO21;Universités pluridisciplinaires avec santé;0941111X;Université Paris-Est Créteil Val-de-Marne;UPEC;https://www.wikidata.org/entity/Q980688;FR0266;oui;DN;Diplômes nationaux;L;1er cycle;Diplôme universitaire de technologie;DUT;Diplôme universitaire de technologie;CB;Diplôme universitaire de technologie;1000268;GENIE BIOLOGIQUE;DIETETIQUE;2;2ème année;Sciences et sciences de l'ingénieur>Sciences de la vie, de la terre et de l'univers>Sciences de la vie;SI;Sciences et sciences de l'ingénieur;09;Sciences de la vie, de la terre et de l'univers;06;Sciences de la vie;Secteur de la production;IUT_GB;Génie biologique;26;23;3;26;26;Île-de-France>Créteil>Val-de-Marne>Paris>Créteil;Île-de-France>Créteil>Val-de-Marne>Paris>Créteil;94028;Créteil;UU00851;Paris;D094;Val-de-Marne;A24;Créteil;R11;Île-de-France;94028;Créteil;UU00851;Paris;D094;Val-de-Marne;A24;Créteil;R11;Île-de-France
2017;2017-18;Université;TYPO21;Universités pluridisciplinaires avec santé;0941111X;Université Paris-Est Créteil Val-de-Marne;UPEC;https://www.wikidata.org/entity/Q980688;FR0266;oui;DN;Diplômes nationaux;L;1er cycle;Diplôme universitaire de technologie;DUT;Diplôme universitaire de technologie;CB;Diplôme universitaire de technologie;1000297;MESURES PHYSIQUES;;1;1ère année;Sciences et sciences de l'ingénieur>Sciences fondamentales et applications>Physique;SI;Sciences et sciences de l'ingénieur;15;Sciences fondamentales et applications;02;Physique;Secteur de la production;IUT_MP;Mesures physiques;91;27;64;91;91;Île-de-France>Créteil>Val-de-Marne>Paris>Créteil;Île-de-France>Créteil>Val-de-Marne>Paris>Créteil;94028;Créteil;UU00851;Paris;D094;Val-de-Marne;A24;Créteil;R11;Île-de-France;94028;Créteil;UU00851;Paris;D094;Val-de-Marne;A24;Créteil;R11;Île-de-France
2017;2017-18;Université;TYPO21;Universités pluridisciplinaires avec santé;0941111X;Université Paris-Est Créteil Val-de-Marne;UPEC;https://www.wikidata.org/entity/Q980688;FR0266;oui;DN;Diplômes nationaux;L;1er cycle;Diplôme universitaire de technologie;DUT;Diplôme universitaire de technologie;CB;Diplôme universitaire de technologie;1003199;GENIE BIOLOGIQUE;INDUSTRIES AGROALIMENTAIRES ET BIOLOGIQUES;2;2ème année;Sciences et sciences de l'ingénieur>Sciences de la vie, de la terre et de l'univers>Sciences de la vie;SI;Sciences et sciences de l'ingénieur;09;Sciences de la vie, de la terre et de l'univers;06;Sciences de la vie;Secteur de la production;IUT_GB;Génie biologique;23;19;4;23;23;Île-de-France>Créteil>Val-de-Marne>Paris>Créteil;Île-de-France>Créteil>Val-de-Marne>Paris>Créteil;94028;Créteil;UU00851;Paris;D094;Val-de-Marne;A24;Créteil;R11;Île-de-France;94028;Créteil;UU00851;Paris;D094;Val-de-Marne;A24;Créteil;R11;Île-de-France
2017;2017-18;Université;TYPO21;Universités pluridisciplinaires avec santé;0941111X;Université Paris-Est Créteil Val-de-Marne;UPEC;https://www.wikidata.org/entity/Q980688;FR0266;oui;DN;Diplômes nationaux;L;1er cycle;Diplôme universitaire de technologie;DUT;Diplôme universitaire de technologie;CB;Diplôme universitaire de technologie;1000270;CHIMIE;;1;1ère année;Sciences et sciences de l'ingénieur>Sciences fondamentales et applications>Chimie;SI;Sciences et sciences de l'ingénieur;15;Sciences fondamentales et applications;03;Chimie;Secteur de la production;IUT_CHIMIE;Chimie;78;65;13;78;78;Île-de-France>Créteil>Val-de-Marne>Paris>Créteil;Île-de-France>Créteil>Val-de-Marne>Paris>Vitry-sur-Seine;94028;Créteil;UU00851;Paris;D094;Val-de-Marne;A24;Créteil;R11;Île-de-France;94081;Vitry-sur-Seine;UU00851;Paris;D094;Val-de-Marne;A24;Créteil;R11;Île-de-France
2017;2017-18;Université;TYPO21;Universités pluridisciplinaires avec santé;0941111X;Université Paris-Est Créteil Val-de-Marne;UPEC;https://www.wikidata.org/entity/Q980688;FR0266;oui;DN;Diplômes nationaux;L;1er cycle;Diplôme universitaire de technologie;DUT;Diplôme universitaire de technologie;CB;Diplôme universitaire de technologie;1003221;GESTION DES ENTREPRISES ET DES ADMINISTRATIONS;GESTION DES RESSOURCES HUMAINES;2;2ème année;Droit, sciences économiques, AES>Sciences économiques, gestion>Sciences de gestion;DSA;Droit, sciences économiques, AES;02;Sciences économiques, gestion;39;Sciences de gestion;Secteur des services;IUT_GEA;Gestion des entreprises et administrations;17;12;5;17;17;Île-de-France>Créteil>Val-de-Marne>Paris>Créteil;Île-de-France>Créteil>Seine-et-Marne>Fontainebleau;94028;Créteil;UU00851;Paris;D094;Val-de-Marne;A24;Créteil;R11;Île-de-France;77186;Fontainebleau;UU77406;Fontainebleau;D077;Seine-et-Marne;A24;Créteil;R11;Île-de-France
2017;2017-18;Université;TYPO21;Universités pluridisciplinaires avec santé;0941111X;Université Paris-Est Créteil Val-de-Marne;UPEC;https://www.wikidata.org/entity/Q980688;FR0266;oui;DN;Diplômes nationaux;L;1er cycle;Diplôme universitaire de technologie;DUT;Diplôme universitaire de technologie;CB;Diplôme universitaire de technologie;1000822;RESEAUX ET TELECOMMUNICATIONS;;1;1ère année;Sciences et sciences de l'ingénieur>Sciences fondamentales et applications>Informatique;SI;Sciences et sciences de l'ingénieur;15;Sciences fondamentales et applications;14;Informatique;Secteur de la production;IUT_RT;Réseaux et télécommunications;95;9;86;95;95;Île-de-France>Créteil>Val-de-Marne>Paris>Créteil;Île-de-France>Créteil>Val-de-Marne>Paris>Vitry-sur-Seine;94028;Créteil;UU00851;Paris;D094;Val-de-Marne;A24;Créteil;R11;Île-de-France;94081;Vitry-sur-Seine;UU00851;Paris;D094;Val-de-Marne;A24;Créteil;R11;Île-de-France
2017;2017-18;Université;TYPO21;Universités pluridisciplinaires avec santé;0941111X;Université Paris-Est Créteil Val-de-Marne;UPEC;https://www.wikidata.org/entity/Q980688;FR0266;oui;DN;Diplômes nationaux;L;1er cycle;Diplôme universitaire de technologie;DUT;Diplôme universitaire de technologie;CB;Diplôme universitaire de technologie;1000282;GENIE ELECTRIQUE ET INFORMATIQUE INDUSTRIELLE;;1;1ère année;Sciences et sciences de l'ingénieur>Sciences fondamentales et applications>Électronique, génie électrique;SI;Sciences et sciences de l'ingénieur;15;Sciences fondamentales et applications;15;Électronique, génie électrique;Secteur de la production;IUT_GE2I;Génie électrique et informatique industrielle;117;6;111;117;117;Île-de-France>Créteil>Val-de-Marne>Paris>Créteil;Île-de-France>Créteil>Seine-et-Marne>Paris>Lieusaint;94028;Créteil;UU00851;Paris;D094;Val-de-Marne;A24;Créteil;R11;Île-de-France;77251;Lieusaint;UU00851;Paris;D077;Seine-et-Marne;A24;Créteil;R11;Île-de-France
2017;2017-18;Université;TYPO21;Universités pluridisciplinaires avec santé;0941111X;Université Paris-Est Créteil Val-de-Marne;UPEC;https://www.wikidata.org/entity/Q980688;FR0266;oui;DN;Diplômes nationaux;L;1er cycle;Diplôme universitaire de technologie;DUT;Diplôme universitaire de technologie;CB;Diplôme universitaire de technologie;1000303;CARRIERES SOCIALES;ANIMATION SOCIALE ET SOCIO-CULTURELLE;1;1ère année;Lettres, langues et sciences humaines>Sciences humaines et sociales>Sciences de l'information et la communication;LLSH;Lettres, langues et sciences humaines;06;Sciences humaines et sociales;35;Sciences de l'information et la communication;Secteur des services;IUT_CS;Carrières sociales;69;54;15;69;69;Île-de-France>Créteil>Val-de-Marne>Paris>Créteil;Île-de-France>Créteil>Seine-et-Marne>Paris>Lieusaint;94028;Créteil;UU00851;Paris;D094;Val-de-Marne;A24;Créteil;R11;Île-de-France;77251;Lieusaint;UU00851;Paris;D077;Seine-et-Marne;A24;Créteil;R11;Île-de-France
2017;2017-18;Université;TYPO21;Universités pluridisciplinaires avec santé;0941111X;Université Paris-Est Créteil Val-de-Marne;UPEC;https://www.wikidata.org/entity/Q980688;FR0266;oui;DN;Diplômes nationaux;L;1er cycle;Diplôme universitaire de technologie;DUT;Diplôme universitaire de technologie;CB;Diplôme universitaire de technologie;1000303;CARRIERES SOCIALES;ANIMATION SOCIALE ET SOCIO-CULTURELLE;2;2ème année;Lettres, langues et sciences humaines>Sciences humaines et sociales>Sciences de l'information et la communication;LLSH;Lettres, langues et sciences humaines;06;Sciences humaines et sociales;35;Sciences de l'information et la communication;Secteur des services;IUT_CS;Carrières sociales;63;48;15;63;63;Île-de-France>Créteil>Val-de-Marne>Paris>Créteil;Île-de-France>Créteil>Seine-et-Marne>Paris>Lieusaint;94028;Créteil;UU00851;Paris;D094;Val-de-Marne;A24;Créteil;R11;Île-de-France;77251;Lieusaint;UU00851;Paris;D077;Seine-et-Marne;A24;Créteil;R11;Île-de-France
2017;2017-18;Université;TYPO21;Universités pluridisciplinaires avec santé;0941111X;Université Paris-Est Créteil Val-de-Marne;UPEC;https://www.wikidata.org/entity/Q980688;FR0266;oui;DN;Diplômes nationaux;L;1er cycle;Diplôme universitaire de technologie;DUT;Diplôme universitaire de technologie;CB;Diplôme universitaire de technologie;1003220;GESTION DES ENTREPRISES ET DES ADMINISTRATIONS;GESTION ET MANAGEMENT DES ORGANISATIONS;2;2ème année;Droit, sciences économiques, AES>Sciences économiques, gestion>Sciences de gestion;DSA;Droit, sciences économiques, AES;02;Sciences économiques, gestion;39;Sciences de gestion;Secteur des services;IUT_GEA;Gestion des entreprises et administrations;77;39;38;77;77;Île-de-France>Créteil>Val-de-Marne>Paris>Créteil;Île-de-France>Créteil>Seine-et-Marne>Fontainebleau;94028;Créteil;UU00851;Paris;D094;Val-de-Marne;A24;Créteil;R11;Île-de-France;77186;Fontainebleau;UU77406;Fontainebleau;D077;Seine-et-Marne;A24;Créteil;R11;Île-de-France
2017;2017-18;Université;TYPO21;Universités pluridisciplinaires avec santé;0941111X;Université Paris-Est Créteil Val-de-Marne;UPEC;https://www.wikidata.org/entity/Q980688;FR0266;oui;DN;Diplômes nationaux;L;1er cycle;Diplôme universitaire de technologie;DUT;Diplôme universitaire de technologie;CB;Diplôme universitaire de technologie;1000822;RESEAUX ET TELECOMMUNICATIONS;;2;2ème année;Sciences et sciences de l'ingénieur>Sciences fondamentales et applications>Informatique;SI;Sciences et sciences de l'ingénieur;15;Sciences fondamentales et applications;14;Informatique;Secteur de la production;IUT_RT;Réseaux et télécommunications;69;11;58;69;69;Île-de-France>Créteil>Val-de-Marne>Paris>Créteil;Île-de-France>Créteil>Val-de-Marne>Paris>Vitry-sur-Seine;94028;Créteil;UU00851;Paris;D094;Val-de-Marne;A24;Créteil;R11;Île-de-France;94081;Vitry-sur-Seine;UU00851;Paris;D094;Val-de-Marne;A24;Créteil;R11;Île-de-France
2017;2017-18;Université;TYPO21;Universités pluridisciplinaires avec santé;0941111X;Université Paris-Est Créteil Val-de-Marne;UPEC;https://www.wikidata.org/entity/Q980688;FR0266;oui;DN;Diplômes nationaux;L;1er cycle;Diplôme universitaire de technologie;DUT;Diplôme universitaire de technologie;CB;Diplôme universitaire de technologie;1000312;GESTION DES ENTREPRISES ET DES ADMINISTRATIONS;;1;1ère année;Droit, sciences économiques, AES>Sciences économiques, gestion>Sciences de gestion;DSA;Droit, sciences économiques, AES;02;Sciences économiques, gestion;39;Sciences de gestion;Secteur des services;IUT_GEA;Gestion des entreprises et administrations;157;96;61;157;157;Île-de-France>Créteil>Val-de-Marne>Paris>Créteil;Île-de-France>Créteil>Seine-et-Marne>Paris>Lieusaint;94028;Créteil;UU00851;Paris;D094;Val-de-Marne;A24;Créteil;R11;Île-de-France;77251;Lieusaint;UU00851;Paris;D077;Seine-et-Marne;A24;Créteil;R11;Île-de-France
2017;2017-18;Université;TYPO21;Universités pluridisciplinaires avec santé;0941111X;Université Paris-Est Créteil Val-de-Marne;UPEC;https://www.wikidata.org/entity/Q980688;FR0266;oui;DN;Diplômes nationaux;L;1er cycle;Diplôme universitaire de technologie;DUT;Diplôme universitaire de technologie;CB;Diplôme universitaire de technologie;1000296;GENIE INDUSTRIEL ET MAINTENANCE;;1;1ère année;Sciences et sciences de l'ingénieur>Sciences fondamentales et applications>Technologie et sciences industrielles;SI;Sciences et sciences de l'ingénieur;15;Sciences fondamentales et applications;16;Technologie et sciences industrielles;Secteur de la production;IUT_GIM;Génie industriel et maintenance;58;5;53;58;58;Île-de-France>Créteil>Val-de-Marne>Paris>Créteil;Île-de-France>Créteil>Seine-et-Marne>Paris>Lieusaint;94028;Créteil;UU00851;Paris;D094;Val-de-Marne;A24;Créteil;R11;Île-de-France;77251;Lieusaint;UU00851;Paris;D077;Seine-et-Marne;A24;Créteil;R11;Île-de-France
2017;2017-18;Université;TYPO21;Universités pluridisciplinaires avec santé;0941111X;Université Paris-Est Créteil Val-de-Marne;UPEC;https://www.wikidata.org/entity/Q980688;FR0266;oui;DN;Diplômes nationaux;L;1er cycle;Diplôme universitaire de technologie;DUT;Diplôme universitaire de technologie;CB;Diplôme universitaire de technologie;1000282;GENIE ELECTRIQUE ET INFORMATIQUE INDUSTRIELLE;;2;2ème année;Sciences et sciences de l'ingénieur>Sciences fondamentales et applications>Électronique, génie électrique;SI;Sciences et sciences de l'ingénieur;15;Sciences fondamentales et applications;15;Électronique, génie électrique;Secteur de la production;IUT_GE2I;Génie électrique et informatique industrielle;66;5;61;66;66;Île-de-France>Créteil>Val-de-Marne>Paris>Créteil;Île-de-France>Créteil>Seine-et-Marne>Paris>Lieusaint;94028;Créteil;UU00851;Paris;D094;Val-de-Marne;A24;Créteil;R11;Île-de-France;77251;Lieusaint;UU00851;Paris;D077;Seine-et-Marne;A24;Créteil;R11;Île-de-France
